A35FOJ3K98V4DL	3L4PIM1GQUZ3HEZIHUPZWMK1687YR0	3298937	1900	1417	3109	14oct07c_1_00003gr_00003sq_00003hl_v01_00002ed-a.png
A2KG59JUICJLP0	3ZWFC4W1UVQXHNINC4XB71DL01MRF9	3298937	1900	1417	3109	14oct07c_1_00003gr_00003sq_00003hl_v01_00002ed-a.png
A2Z6NL0CTXY0ZB	3IX2EGZR7C2DMP4JVUOWMZ5DTFWRJJ	3298937	1900	1417	3109	14oct07c_1_00003gr_00003sq_00003hl_v01_00002ed-a.png
A35FOJ3K98V4DL	3TPWUS5F8AKVM7FZKWHGMU0ZVZ5CWA	3298938	1900	1416	3079	14oct07c_1_00003gr_00003sq_00003hl_v01_00004ed-a.png
A2Z6NL0CTXY0ZB	3E47SOBEYRFDLCVUVFD1L3RRGX7ICR	3298939	1900	1415	3069	14oct07c_1_00003gr_00004sq_00003hl_v01_00004ed-a.png
AGEB5FAJOVLKV	3EF8EXOTT2EPTK52X09HG8N0PPL1JW	3298942	1900	1412	3089	14oct07c_1_00003gr_00012sq_00005hl_v01_00002ed-a.png
A35FOJ3K98V4DL	3ZWFC4W1UVQXHNINC4XB71DL0XHFRK	3298940	1900	1414	3059	14oct07c_1_00003gr_00004sq_00004hl_v01_00002ed-a.png
A2KG59JUICJLP0	3WT783CTPC03Y4HOP5LKZGNEL2TBC7	3298940	1900	1414	3059	14oct07c_1_00003gr_00004sq_00004hl_v01_00002ed-a.png
A2KG59JUICJLP0	36H9ULYP63DGJZZA4ZO25ARUQKVFJ8	3298943	1900	1411	3099	14oct07c_1_00004gr_00001sq_00002hl_00004ed-a.png
A2Z6NL0CTXY0ZB	3NGMS9VZTM10EXDEL9XHQCZ2XK7FFC	3298943	1900	1411	3099	14oct07c_1_00004gr_00001sq_00002hl_00004ed-a.png
AGEB5FAJOVLKV	34T446B1C1X2EHEERPOVFZRVUDAC0U	3298946	1900	1408	3019	14oct07c_1_00004gr_00007sq_00002hl_v01_00003ed-a.png
A2Z6NL0CTXY0ZB	3EJPLAJKENZA0LB3LSOKZY27GP36ZR	3298946	1900	1408	3019	14oct07c_1_00004gr_00007sq_00002hl_v01_00003ed-a.png
AGEB5FAJOVLKV	3X0H8UUIT27BTO4VHI7G1Z4HHLCSW7	3298947	1900	1407	2999	14oct07c_1_00004gr_00007sq_00002hl_v01_00004ed-a.png
A2KG59JUICJLP0	3DZQRBDBSMYE2Q277YWEW2TKJDZS3O	3298947	1900	1407	2999	14oct07c_1_00004gr_00007sq_00002hl_v01_00004ed-a.png
A2KG59JUICJLP0	3TU5ZICBREKOQ7T0RB25SJMUHB78Q8	3298945	1900	1409	3029	14oct07c_1_00004gr_00005sq_00002hl_v01_00002ed-a.png
A2Z6NL0CTXY0ZB	337RC3OW06LBAM907Z5J3B78I8MLVC	3298945	1900	1409	3029	14oct07c_1_00004gr_00005sq_00002hl_v01_00002ed-a.png
A2Z6NL0CTXY0ZB	37ZHEEHM6X5SJSIFJVY31BXOW4K73O	3298948	1900	1406	3009	14oct07c_1_00004gr_00008sq_00002hl_v01_00002ed-a.png
A35FOJ3K98V4DL	31HQ4X3T3TTVIUSWD40ESON1JFYSL6	3298951	1900	1403	2969	14oct07c_1_00011gr_00051sq_00002hl_00002ed-a.png
A2KG59JUICJLP0	3Y4W8Q93L03SCAL8UI7VKYZ39UHVDT	3298951	1900	1403	2969	14oct07c_1_00011gr_00051sq_00002hl_00002ed-a.png
AGEB5FAJOVLKV	3JC6VJ2SAC2DG93H4HYGQZXYBIXA58	3298950	1900	1404	2949	14oct07c_1_00004gr_00018sq_00003hl_v01_00004ed-a.png
A2KG59JUICJLP0	3NJM2BJS4XP52YIY8A3LU0S3266PC4	3298949	1900	1405	2989	14oct07c_1_00004gr_00008sq_00004hl_v01_00003ed-a.png
A2Z6NL0CTXY0ZB	3WJEQKOXA9LESR2Y3UW4N9KHZUCA1U	3298949	1900	1405	2989	14oct07c_1_00004gr_00008sq_00004hl_v01_00003ed-a.png
A2EFCNGCEO5GFX	3E337GFOLARIGPMQUHMCG28N0P8NG3	3298953	1900	1401	2959	14oct07c_1_00011gr_00055sq_00002hl_00002ed-a.png
A2Z6NL0CTXY0ZB	30OG32W0SVUKWBQZOMWOGZNBNADENZ	3298953	1900	1401	2959	14oct07c_1_00011gr_00055sq_00002hl_00002ed-a.png
A2Z6NL0CTXY0ZB	3UN61F00HX85FQPY6SK2LPM8BC7R5Z	3298954	1900	1400	2979	14oct07c_1_00011gr_00055sq_00002hl_00004ed-a.png
A2Z6NL0CTXY0ZB	3JMSRU9HQJDX4GZ8QDIFQGHO9DIVE0	3298955	1900	1399	2929	14oct07c_1_00011gr_00058sq_00002hl_00002ed-a.png
A2Z6NL0CTXY0ZB	3QY5DC2MXS3PXFA4GYSGCC0576OUFQ	3298952	1900	1402	2939	14oct07c_1_00011gr_00051sq_00002hl_00002ed-a.png
AGEB5FAJOVLKV	3LOZAJ85YEWXDPSNX8OWC05KSTL2X9	3298956	1899	1398	3090	14oct07c_1_00015gr_00066sq_00002hl_00003ed-a.png
A2KG59JUICJLP0	37C0GNLMHGM7XK67TAZN86J4S1U6DH	3298956	1899	1398	3090	14oct07c_1_00015gr_00066sq_00002hl_00003ed-a.png
AGEB5FAJOVLKV	3M81GAB8A127S5R7UNMFJLCVPW6QBX	3298957	1899	1397	3100	14oct07c_1_00015gr_00074sq_00002hl_00002ed-a.png
A2Z6NL0CTXY0ZB	35GCEFQ6I67B32OL2QQMSVQN6X3Z3E	3298957	1899	1397	3100	14oct07c_1_00015gr_00074sq_00002hl_00002ed-a.png
