A35FOJ3K98V4DL	3L4PIM1GQUZ3HEZIHUPZWMK1687YR0	3298937	1900	1417	3109	14oct07c_1_00003gr_00003sq_00003hl_v01_00002ed-a.png
A35FOJ3K98V4DL	3TPWUS5F8AKVM7FZKWHGMU0ZVZ5CWA	3298938	1900	1416	3079	14oct07c_1_00003gr_00003sq_00003hl_v01_00004ed-a.png
AGEB5FAJOVLKV	3EF8EXOTT2EPTK52X09HG8N0PPL1JW	3298942	1900	1412	3089	14oct07c_1_00003gr_00012sq_00005hl_v01_00002ed-a.png
A35FOJ3K98V4DL	3ZWFC4W1UVQXHNINC4XB71DL0XHFRK	3298940	1900	1414	3059	14oct07c_1_00003gr_00004sq_00004hl_v01_00002ed-a.png
AGEB5FAJOVLKV	34T446B1C1X2EHEERPOVFZRVUDAC0U	3298946	1900	1408	3019	14oct07c_1_00004gr_00007sq_00002hl_v01_00003ed-a.png
AGEB5FAJOVLKV	3X0H8UUIT27BTO4VHI7G1Z4HHLCSW7	3298947	1900	1407	2999	14oct07c_1_00004gr_00007sq_00002hl_v01_00004ed-a.png
A35FOJ3K98V4DL	31HQ4X3T3TTVIUSWD40ESON1JFYSL6	3298951	1900	1403	2969	14oct07c_1_00011gr_00051sq_00002hl_00002ed-a.png
AGEB5FAJOVLKV	3JC6VJ2SAC2DG93H4HYGQZXYBIXA58	3298950	1900	1404	2949	14oct07c_1_00004gr_00018sq_00003hl_v01_00004ed-a.png
AGEB5FAJOVLKV	3LOZAJ85YEWXDPSNX8OWC05KSTL2X9	3298956	1899	1398	3090	14oct07c_1_00015gr_00066sq_00002hl_00003ed-a.png
AGEB5FAJOVLKV	3M81GAB8A127S5R7UNMFJLCVPW6QBX	3298957	1899	1397	3100	14oct07c_1_00015gr_00074sq_00002hl_00002ed-a.png
