1891	1228	2938
1891	1229	3038
1891	1230	3048
1891	1231	3058
1891	1232	3068
1891	1233	3078
1891	1234	3088
1891	1235	3098
1891	1236	3108
1891	1237	3118
1891	1238	2948
1891	1239	2958
1891	1240	2968
1891	1241	2978
1891	1242	2988
1891	1243	2998
1891	1244	3008
1891	1245	3018
1891	1246	3028
1892	1247	2937
1892	1248	3037
1892	1249	3047
1892	1250	3057
1892	1251	3067
1892	1252	3077
1892	1253	3087
1892	1254	3097
1892	1255	3107
1892	1256	2947
1892	1257	3117
1892	1258	2957
1892	1259	2967
1892	1260	2977
1892	1261	2987
1892	1262	2997
1892	1263	3007
1892	1264	3017
1892	1265	3027
1893	1266	2936
1893	1267	3036
1893	1268	3046
1893	1269	3056
1893	1270	3066
1893	1271	3076
1893	1272	3086
1893	1273	3096
1893	1274	2946
1893	1275	3106
1893	1276	3116
1893	1277	2956
1893	1278	2966
1893	1279	2976
1893	1280	2986
1893	1281	2996
1893	1282	3006
1893	1283	3016
1893	1284	3026
1894	1285	2935
1894	1286	2975
1894	1287	2945
1894	1288	2985
1894	1289	2955
1894	1290	2965
1894	1291	2995
1894	1292	3005
1894	1293	3015
1894	1294	3025
1894	1295	3115
1894	1296	3035
1894	1297	3085
1894	1298	3045
1894	1299	3095
1894	1300	3055
1894	1301	3065
1894	1302	3075
1894	1303	3105
1895	1304	2934
1895	1305	3034
1895	1306	3044
1895	1307	3054
1895	1308	3064
1895	1309	3074
1895	1310	2944
1895	1311	3084
1895	1312	3094
1895	1313	3104
1895	1314	3114
1895	1315	2954
1895	1316	2964
1895	1317	2974
1895	1318	2984
1895	1319	2994
1895	1320	3004
1895	1321	3014
1895	1322	3024
1896	1323	2933
1896	1324	3033
1896	1325	3043
1896	1326	3053
1896	1327	3063
1896	1328	2943
1896	1329	3073
1896	1330	3083
1896	1331	3093
1896	1332	3103
1896	1333	3113
1896	1334	2953
1896	1335	2963
1896	1336	2973
1896	1337	2983
1896	1338	2993
1896	1339	3003
1896	1340	3013
1896	1341	3023
1897	1342	2932
1897	1343	3032
1897	1344	3042
1897	1345	3052
1897	1346	2942
1897	1347	3062
1897	1348	3072
1897	1349	3082
1897	1350	3092
1897	1351	3102
1897	1352	3112
1897	1353	2952
1897	1354	2962
1897	1355	2972
1897	1356	2982
1897	1357	2992
1897	1358	3002
1897	1359	3012
1897	1360	3022
1898	1361	2931
1898	1362	3031
1898	1363	3041
1898	1364	2941
1898	1365	3051
1898	1366	3061
1898	1367	3071
1898	1368	3081
1898	1369	3091
1898	1370	3101
1898	1371	3111
1898	1372	2951
1898	1373	2961
1898	1374	2971
1898	1375	2981
1898	1376	2991
1898	1377	3001
1898	1378	3011
1898	1379	3021
1899	1380	2930
1899	1381	2940
1899	1382	2980
1899	1383	2950
1899	1384	2960
1899	1385	2970
1899	1386	2990
1899	1387	3000
1899	1388	3020
1899	1389	3010
1899	1390	3030
1899	1391	3040
1899	1392	3110
1899	1393	3080
1899	1394	3050
1899	1395	3060
1899	1396	3070
1899	1397	3100
1899	1398	3090
1900	1399	2929
1900	1400	2979
1900	1401	2959
1900	1402	2939
1900	1403	2969
1900	1404	2949
1900	1405	2989
1900	1406	3009
1900	1407	2999
1900	1408	3019
1900	1409	3029
1900	1410	3039
1900	1411	3099
1900	1412	3089
1900	1413	3049
1900	1414	3059
1900	1415	3069
1900	1416	3079
1900	1417	3109
