39TB21EBTAS5IUQH1OBHRD1IIGA1Z3	3	A2M2MN5W9OBTIZ	[[1, 2, 3], [1, 3], [1, 2, 3], [1, 3], [2], [2, 3], [4]]	Your score on the test was 3/7, we require a minimum of 5/7. Try retaking the test, here are the mistakes you made. The right answer to 1 is B. The right answer to 2 is A. The right answer to 3 is No proteins / Bad Image. The right answer to 4 is A
39W0GT90MGPOP6BPZI89WG3TB6QU05	3	A2YXL5GQ3LZUY0	[[1, 2, 3], [4], [1, 2, 3], [1], [1, 2], [2, 3], [4]]	Your score on the test was 3/7, we require a minimum of 5/7. Try retaking the test, here are the mistakes you made. The right answer to 1 is B. The right answer to 2 is A. The right answer to 3 is No proteins / Bad Image. The right answer to 5 is B
37JA9P57CY64AXXRTDRIWFRZ43Y0AZ	0	A5IELMRC1OIQO	[[1], [3], [3], [2], [4], [1], [1]]	Your score on the test was 0/7, we require a minimum of 5/7. Try retaking the test, here are the mistakes you made. The right answer to 1 is B. The right answer to 2 is A. The right answer to 3 is No proteins / Bad Image. The right answer to 4 is A. The right answer to 5 is B. The right answer to 6 is B & C. The right answer to 7 is No proteins / Bad Image
3GIGW8C0L8PGM5BV3DE2J0HPZ57ZH1	2	A3OJKEVQ7DQA0A	[[3], [1], [4], [4], [4], [2], [1]]	Your score on the test was 2/7, we require a minimum of 5/7. Try retaking the test, here are the mistakes you made. The right answer to 1 is B. The right answer to 4 is A. The right answer to 5 is B. The right answer to 6 is B & C. The right answer to 7 is No proteins / Bad Image
3KIU1RM5DE3GI0MF9VWNJCI4ZIMIZD	4	AZNNPGW3VNPQ2	[[2], [3], [4], [1], [2], [2], [1]]	Your score on the test was 4/7, we require a minimum of 5/7. Try retaking the test, here are the mistakes you made. The right answer to 2 is A. The right answer to 6 is B & C. The right answer to 7 is No proteins / Bad Image
3HJY1ENBW8KG36EO746OM6IADWJRCR	4	AKGU2T7QIXU7N	[[4], [1], [4], [4], [2], [2], [4]]	Your score on the test was 4/7, we require a minimum of 5/7. Try retaking the test, here are the mistakes you made. The right answer to 1 is B. The right answer to 4 is A. The right answer to 6 is B & C
3PSXXG5XNPB8DK3895ROXSH5TKL2WW	4	A1JM0SWV21W4BX	[[2, 3], [1], [1, 2, 3], [1, 3], [2], [2, 3], [4]]	Your score on the test was 4/7, we require a minimum of 5/7. Try retaking the test, here are the mistakes you made. The right answer to 1 is B. The right answer to 3 is No proteins / Bad Image. The right answer to 4 is A
38LO2MTWZ5X8JY65BY1TRH5UKVNUCY	4	A138BU1VWM2RKN	[[2, 3], [1], [4], [1, 2], [2], [1, 2, 3], [4]]	Your score on the test was 4/7, we require a minimum of 5/7. Try retaking the test, here are the mistakes you made. The right answer to 1 is B. The right answer to 4 is A. The right answer to 6 is B & C
3GL3C1DRX394JW887ML63EB0FEIIOA	2	A104PCAIQ0YIMM	[[3], [4], [2], [1], [2], [2], [1, 3]]	Your score on the test was 2/7, we require a minimum of 5/7. Try retaking the test, here are the mistakes you made. The right answer to 1 is B. The right answer to 2 is A. The right answer to 3 is No proteins / Bad Image. The right answer to 6 is B & C. The right answer to 7 is No proteins / Bad Image
3A3K2APEXET80FA071WDK7N76SZMPC	3	A3HMBHM8HJLKRD	[[2], [3], [2], [1], [2], [2], [1]]	Your score on the test was 3/7, we require a minimum of 5/7. Try retaking the test, here are the mistakes you made. The right answer to 2 is A. The right answer to 3 is No proteins / Bad Image. The right answer to 6 is B & C. The right answer to 7 is No proteins / Bad Image
3HG6L97AA962KW09P73N7HFZXR5V7V	1	A1Z61FGSEBPA6D	[[2, 3], [4], [1, 2, 3], [1, 2, 3], [1, 2, 3], [2, 3], [1, 2, 3]]	Your score on the test was 1/7, we require a minimum of 5/7. Try retaking the test, here are the mistakes you made. The right answer to 1 is B. The right answer to 2 is A. The right answer to 3 is No proteins / Bad Image. The right answer to 4 is A. The right answer to 5 is B. The right answer to 7 is No proteins / Bad Image
3GBCA5TH8B731NCL1KQXH4T3Y48EAZ	3	A3BHRFFG75X3GO	[[2, 3], [4], [4], [1], [2], [2], [3]]	Your score on the test was 3/7, we require a minimum of 5/7. Try retaking the test, here are the mistakes you made. The right answer to 1 is B. The right answer to 2 is A. The right answer to 6 is B & C. The right answer to 7 is No proteins / Bad Image
3KVQI6E3X8XAS8PUF2FR35CLKXA5P6	2	A1T4MC1F4TKX9Z	[[3], [4], [4], [1], [4], [4], [2]]	Your score on the test was 2/7, we require a minimum of 5/7. Try retaking the test, here are the mistakes you made. The right answer to 1 is B. The right answer to 2 is A. The right answer to 5 is B. The right answer to 6 is B & C. The right answer to 7 is No proteins / Bad Image
36US33DJNEA1GETIZFK36CFWK2IH93	0	A3AK0PCM9V4TQZ	[[3], [4], [1, 2, 3], [4], [4], [2], [1, 2, 3]]	Your score on the test was 0/7, we require a minimum of 5/7. Try retaking the test, here are the mistakes you made. The right answer to 1 is B. The right answer to 2 is A. The right answer to 3 is No proteins / Bad Image. The right answer to 4 is A. The right answer to 5 is B. The right answer to 6 is B & C. The right answer to 7 is No proteins / Bad Image
3501KIUWKWUZDDZH0CHAOLL06BI1FH	4	A2Z6NL0CTXY0ZB	[[3], [1], [3], [1], [2], [2, 3], [1]]	Your score on the test was 4/7, we require a minimum of 5/7. Try retaking the test, here are the mistakes you made. The right answer to 1 is B. The right answer to 3 is No proteins / Bad Image. The right answer to 7 is No proteins / Bad Image
3WXOTW0YFR4NJ6VZUXQQODMJCD3LK8	3	A3CTRPYM593S4J	[[2, 3], [1, 2], [4], [1, 2, 3], [1, 2], [2, 3], [4]]	Your score on the test was 3/7, we require a minimum of 5/7. Try retaking the test, here are the mistakes you made. The right answer to 1 is B. The right answer to 2 is A. The right answer to 4 is A. The right answer to 5 is B
3C69YZ40VPQN8SUTQC0GYHNS1OIM9I	2	A34QZDSTKZ3JO9	[[4], [3], [4], [4], [4], [2], [4]]	Your score on the test was 2/7, we require a minimum of 5/7. Try retaking the test, here are the mistakes you made. The right answer to 1 is B. The right answer to 2 is A. The right answer to 4 is A. The right answer to 5 is B. The right answer to 6 is B & C
3FQWQA0Y3NH89KZ91BUP79FMVHO00A	2	A29ZTHY1OB4IC8	[[4], [1], [1, 3], [1], [4], [4], [1, 2, 3]]	Your score on the test was 2/7, we require a minimum of 5/7. Try retaking the test, here are the mistakes you made. The right answer to 1 is B. The right answer to 3 is No proteins / Bad Image. The right answer to 5 is B. The right answer to 6 is B & C. The right answer to 7 is No proteins / Bad Image
3ALDEMGOJK6M7039268982NXROE2J3	4	A3NDYVCFCYRPT9	[[3], [1], [4], [1, 3], [1, 2, 3], [2, 3], [4]]	Your score on the test was 4/7, we require a minimum of 5/7. Try retaking the test, here are the mistakes you made. The right answer to 1 is B. The right answer to 4 is A. The right answer to 5 is B
3J9LI9V2LQYTTVR6ISS8FLHN6TTP9H	1	ABTVU10UI3EGE	[[3], [4], [4], [4], [4], [4], [2]]	Your score on the test was 1/7, we require a minimum of 5/7. Try retaking the test, here are the mistakes you made. The right answer to 1 is B. The right answer to 2 is A. The right answer to 4 is A. The right answer to 5 is B. The right answer to 6 is B & C. The right answer to 7 is No proteins / Bad Image
32XLV47WSFF5KOAUFDJSS1222YD0GD	4	A2YXL5GQ3LZUY0	[[2], [1, 2], [1, 2, 3], [1], [2], [3], [4]]	Your score on the test was 4/7, we require a minimum of 5/7. Try retaking the test, here are the mistakes you made. The right answer to 2 is A. The right answer to 3 is No proteins / Bad Image. The right answer to 6 is B & C
3NX64ANX2I9APNDHZN2ZZG7QKIA5NB	3	AIX6B0356A0VM	[[2, 3], [4], [4], [1, 2, 3], [1, 3], [2, 3], [4]]	Your score on the test was 3/7, we require a minimum of 5/7. Try retaking the test, here are the mistakes you made. The right answer to 1 is B. The right answer to 2 is A. The right answer to 4 is A. The right answer to 5 is B
30545L5X1V243OLAYNG2QVO3SLZMET	3	A3IHT9LDUJNP3E	[[2], [1], [3], [1], [2, 3], [1, 2, 3], [1, 3]]	Your score on the test was 3/7, we require a minimum of 5/7. Try retaking the test, here are the mistakes you made. The right answer to 3 is No proteins / Bad Image. The right answer to 5 is B. The right answer to 6 is B & C. The right answer to 7 is No proteins / Bad Image
3J734B9D867ZW1S538XF2K3PX0AIUR	3	A3HP03BD6XEOZT	[[3], [4], [4], [1], [2], [1, 2], [1, 2, 3]]	Your score on the test was 3/7, we require a minimum of 5/7. Try retaking the test, here are the mistakes you made. The right answer to 1 is B. The right answer to 2 is A. The right answer to 6 is B & C. The right answer to 7 is No proteins / Bad Image
3O2KHUCY56NBKLRZ6CZDPOCOIRWX64	4	A1LXW53Z5S9XG	[[2], [2], [4], [1], [1, 2, 3], [2, 3], [1]]	Your score on the test was 4/7, we require a minimum of 5/7. Try retaking the test, here are the mistakes you made. The right answer to 2 is A. The right answer to 5 is B. The right answer to 7 is No proteins / Bad Image
3J6GNKMWETQ1DB4YIIEGUCYC762MAZ	4	A2W3KKNN3CAY66	[[2, 3], [1], [1, 2, 3], [1], [4], [2, 3], [4]]	Your score on the test was 4/7, we require a minimum of 5/7. Try retaking the test, here are the mistakes you made. The right answer to 1 is B. The right answer to 3 is No proteins / Bad Image. The right answer to 5 is B
3TDZ0T1FUTW3H2D0S5BNUWFXSUKE37	4	A1YDOEMAT1Y8G0	[[3], [4], [4], [1], [2], [4], [4]]	Your score on the test was 4/7, we require a minimum of 5/7. Try retaking the test, here are the mistakes you made. The right answer to 1 is B. The right answer to 2 is A. The right answer to 6 is B & C
330JW5E07CJ35OMMABHIAT9O15B2RY	4	A2UHT7JHPZIP12	[[2], [1], [1, 2, 3], [1, 2, 3], [1, 2], [2, 3], [4]]	Your score on the test was 4/7, we require a minimum of 5/7. Try retaking the test, here are the mistakes you made. The right answer to 3 is No proteins / Bad Image. The right answer to 4 is A. The right answer to 5 is B
3LCAEYAOJ1V818BZ13WBTVH81PF99A	2	A1F5C35V74ZO9O	[[1, 2, 3], [2], [4], [1, 2], [2], [1, 2, 3], [1, 2, 3]]	Your score on the test was 2/7, we require a minimum of 5/7. Try retaking the test, here are the mistakes you made. The right answer to 1 is B. The right answer to 2 is A. The right answer to 4 is A. The right answer to 6 is B & C. The right answer to 7 is No proteins / Bad Image
33ZDUQ6WGN5EUQ247QZCMEP9UEU6IF	4	AIWEXPJAU66D9	[[2, 3], [4], [4], [1], [2], [2], [4]]	Your score on the test was 4/7, we require a minimum of 5/7. Try retaking the test, here are the mistakes you made. The right answer to 1 is B. The right answer to 2 is A. The right answer to 6 is B & C
3N4IGIGR1MP77ZZL51X46300UA71E3	0	A2GKX2DKD177CL	[[1], [2], [3], [2], [3], [3], [3]]	Your score on the test was 0/7, we require a minimum of 5/7. Try retaking the test, here are the mistakes you made. The right answer to 1 is B. The right answer to 2 is A. The right answer to 3 is No proteins / Bad Image. The right answer to 4 is A. The right answer to 5 is B. The right answer to 6 is B & C. The right answer to 7 is No proteins / Bad Image
3MRCFRN2GR1D9OCRTS6UEK9A8RDMX5	3	A2XPVEIOJDXARW	[[1, 2, 3], [1], [1, 2, 3], [1, 3], [2], [2, 3], [1]]	Your score on the test was 3/7, we require a minimum of 5/7. Try retaking the test, here are the mistakes you made. The right answer to 1 is B. The right answer to 3 is No proteins / Bad Image. The right answer to 4 is A. The right answer to 7 is No proteins / Bad Image
3DSEYWN177P475SHNMNZM1IQFS45MF	3	A4L95CDDYC48G	[[2, 3], [4], [4], [4], [4], [2, 3], [4]]	Your score on the test was 3/7, we require a minimum of 5/7. Try retaking the test, here are the mistakes you made. The right answer to 1 is B. The right answer to 2 is A. The right answer to 4 is A. The right answer to 5 is B
3XJ3720L5M84NPN6M6YRFZQ26ZS97Z	4	A4L95CDDYC48G	[[2, 3], [4], [4], [1], [2], [2, 3], [1, 2, 3]]	Your score on the test was 4/7, we require a minimum of 5/7. Try retaking the test, here are the mistakes you made. The right answer to 1 is B. The right answer to 2 is A. The right answer to 7 is No proteins / Bad Image
365UYHXQEKD4HMI9PWVIAKA99VBA1J	3	A3DTBL9NV7SDQC	[[4], [3], [4], [1], [4], [2], [4]]	Your score on the test was 3/7, we require a minimum of 5/7. Try retaking the test, here are the mistakes you made. The right answer to 1 is B. The right answer to 2 is A. The right answer to 5 is B. The right answer to 6 is B & C
32BZ80CX6DEC8LWGVRF4H6O263EJY6	1	A1MYBMOZH043LK	[[3], [4], [4], [4], [1], [1], [1, 2, 3]]	Your score on the test was 1/7, we require a minimum of 5/7. Try retaking the test, here are the mistakes you made. The right answer to 1 is B. The right answer to 2 is A. The right answer to 4 is A. The right answer to 5 is B. The right answer to 6 is B & C. The right answer to 7 is No proteins / Bad Image
3KMU558KRKZ6Q2Y47Z2NJI5PYY6BYE	2	A31MUX0WVEC6XU	[[3], [1], [1, 2, 3], [1], [4], [1, 2, 3], [1, 2, 3]]	Your score on the test was 2/7, we require a minimum of 5/7. Try retaking the test, here are the mistakes you made. The right answer to 1 is B. The right answer to 3 is No proteins / Bad Image. The right answer to 5 is B. The right answer to 6 is B & C. The right answer to 7 is No proteins / Bad Image
3ZICUZDEL49XNJ7QB2BIJCEJBDQ82V	2	AWPSQEB5LVB36	[[3], [4], [1, 3], [1], [4], [1], [4]]	Your score on the test was 2/7, we require a minimum of 5/7. Try retaking the test, here are the mistakes you made. The right answer to 1 is B. The right answer to 2 is A. The right answer to 3 is No proteins / Bad Image. The right answer to 5 is B. The right answer to 6 is B & C
3CDYIA8BW4FP9H1MTE0BTIBI7LTS4B	0	A3ELMZ85H8FESH	[[1], [4], [1], [4], [4], [1], [2]]	Your score on the test was 0/7, we require a minimum of 5/7. Try retaking the test, here are the mistakes you made. The right answer to 1 is B. The right answer to 2 is A. The right answer to 3 is No proteins / Bad Image. The right answer to 4 is A. The right answer to 5 is B. The right answer to 6 is B & C. The right answer to 7 is No proteins / Bad Image
39A9OEMD9UMTDAB4CYFK7GHNOCTSOL	1	A1GJA9DZS0F43K	[[1], [3], [4], [2], [1, 3], [1], [1, 2, 3]]	Your score on the test was 1/7, we require a minimum of 5/7. Try retaking the test, here are the mistakes you made. The right answer to 1 is B. The right answer to 2 is A. The right answer to 4 is A. The right answer to 5 is B. The right answer to 6 is B & C. The right answer to 7 is No proteins / Bad Image
3D48YW4QT1XCX4P5P7GTXBJODVPCCF	3	A2MKUZ0K3S7NQU	[[4], [3], [4], [1], [2], [2], [3]]	Your score on the test was 3/7, we require a minimum of 5/7. Try retaking the test, here are the mistakes you made. The right answer to 1 is B. The right answer to 2 is A. The right answer to 6 is B & C. The right answer to 7 is No proteins / Bad Image
31ET2OV2AMX4X5AOHQ4DKQBA1VKEYI	4	A38RE21KWKK45H	[[2], [4], [4], [1], [2], [2], [1]]	Your score on the test was 4/7, we require a minimum of 5/7. Try retaking the test, here are the mistakes you made. The right answer to 2 is A. The right answer to 6 is B & C. The right answer to 7 is No proteins / Bad Image
3KTE8OBI60ZN8G66QVT2YSHT4XLXJF	3	A36PJP7KXXI184	[[2], [4], [3], [4], [2], [2], [4]]	Your score on the test was 3/7, we require a minimum of 5/7. Try retaking the test, here are the mistakes you made. The right answer to 2 is A. The right answer to 3 is No proteins / Bad Image. The right answer to 4 is A. The right answer to 6 is B & C
3ONJ3KSURZ6JN4171KNVRIYSM3L1IJ	2	AZ5FNJKH1ZYUY	[[3], [4], [3], [1], [2], [2], [3]]	Your score on the test was 2/7, we require a minimum of 5/7. Try retaking the test, here are the mistakes you made. The right answer to 1 is B. The right answer to 2 is A. The right answer to 3 is No proteins / Bad Image. The right answer to 6 is B & C. The right answer to 7 is No proteins / Bad Image
3PSXXG5XNPB8DK3895ROXSH5TKX2W8	3	A2NNCGHJVK0L1K	[[3], [4], [1, 2, 3], [1], [2], [2], [4]]	Your score on the test was 3/7, we require a minimum of 5/7. Try retaking the test, here are the mistakes you made. The right answer to 1 is B. The right answer to 2 is A. The right answer to 3 is No proteins / Bad Image. The right answer to 6 is B & C
3O1U94Z5VOGJLTPH8LKUN7KMCQKHSR	3	A347377UT6CIYU	[[2], [4], [4], [1], [1], [2], [1, 3]]	Your score on the test was 3/7, we require a minimum of 5/7. Try retaking the test, here are the mistakes you made. The right answer to 2 is A. The right answer to 5 is B. The right answer to 6 is B & C. The right answer to 7 is No proteins / Bad Image
3684IKBLVN8RNHSW5EKC3E1PX6TVNP	3	A2TM4ZJPWC5XMC	[[3], [4], [4], [1], [2], [2], [3]]	Your score on the test was 3/7, we require a minimum of 5/7. Try retaking the test, here are the mistakes you made. The right answer to 1 is B. The right answer to 2 is A. The right answer to 6 is B & C. The right answer to 7 is No proteins / Bad Image
3A3K2APEXET80FA071WDK7N76TKPM2	2	A1FVU0KN04WSYB	[[3], [4], [4], [4], [4], [2], [4]]	Your score on the test was 2/7, we require a minimum of 5/7. Try retaking the test, here are the mistakes you made. The right answer to 1 is B. The right answer to 2 is A. The right answer to 4 is A. The right answer to 5 is B. The right answer to 6 is B & C
39KOSBDBWVECQE5OL6CT78WU2IIVQG	4	A12VN8BAUQ30VA	[[2, 3], [1], [1, 2, 3], [1, 3], [2], [2, 3], [4]]	Your score on the test was 4/7, we require a minimum of 5/7. Try retaking the test, here are the mistakes you made. The right answer to 1 is B. The right answer to 3 is No proteins / Bad Image. The right answer to 4 is A
3JBQICLHHYBPIUXG2A6OCD7HMPITVT	3	AJNQ2PBD07FKE	[[2], [1], [1, 2], [1], [1, 2, 3], [2], [3]]	Your score on the test was 3/7, we require a minimum of 5/7. Try retaking the test, here are the mistakes you made. The right answer to 3 is No proteins / Bad Image. The right answer to 5 is B. The right answer to 6 is B & C. The right answer to 7 is No proteins / Bad Image
385MV7DUNNRIZ74F44JL4FVQ2ZQJPT	1	A2341KCW7BI2NS	[[2, 3], [4], [1, 2, 3], [1, 2, 3], [1, 2, 3], [1, 2, 3], [4]]	Your score on the test was 1/7, we require a minimum of 5/7. Try retaking the test, here are the mistakes you made. The right answer to 1 is B. The right answer to 2 is A. The right answer to 3 is No proteins / Bad Image. The right answer to 4 is A. The right answer to 5 is B. The right answer to 6 is B & C
326UUCZ43FGS4ZBG08HMJ80DSEQK89	3	A6A1GVJ06619H	[[2, 3], [1], [1, 2, 3], [1], [2], [1, 2], [1]]	Your score on the test was 3/7, we require a minimum of 5/7. Try retaking the test, here are the mistakes you made. The right answer to 1 is B. The right answer to 3 is No proteins / Bad Image. The right answer to 6 is B & C. The right answer to 7 is No proteins / Bad Image
34QZH5E0SQMNBI23KQCN65LSU0CB7U	3	A3M74VDJTHRBRJ	[[2, 3], [1], [1, 2, 3], [1, 3], [2], [2, 3], [1, 3]]	Your score on the test was 3/7, we require a minimum of 5/7. Try retaking the test, here are the mistakes you made. The right answer to 1 is B. The right answer to 3 is No proteins / Bad Image. The right answer to 4 is A. The right answer to 7 is No proteins / Bad Image
383XCZ3N9NQL6GOVQ4G85T7AYGKL0R	4	A24F42H3K58D8A	[[2], [1], [1], [4], [2], [3], [4]]	Your score on the test was 4/7, we require a minimum of 5/7. Try retaking the test, here are the mistakes you made. The right answer to 3 is No proteins / Bad Image. The right answer to 4 is A. The right answer to 6 is B & C
3UVVW8K86TUORCG2RAI6G53N69VNL4	4	A2H3A88TV311S6	[[3], [1], [4], [4], [2], [4], [4]]	Your score on the test was 4/7, we require a minimum of 5/7. Try retaking the test, here are the mistakes you made. The right answer to 1 is B. The right answer to 4 is A. The right answer to 6 is B & C
3RHBL9Y9XQ36MOSL7LT8JCBB46MTY4	4	A1H610KVYQ6CPH	[[2, 3], [1], [4], [1], [4], [2], [4]]	Your score on the test was 4/7, we require a minimum of 5/7. Try retaking the test, here are the mistakes you made. The right answer to 1 is B. The right answer to 5 is B. The right answer to 6 is B & C
329BT0H5MG3UG21THKXRLUWWI5DKCH	4	AYD2LKV6C5F2S	[[2], [1], [1, 3], [1, 3], [2], [2], [4]]	Your score on the test was 4/7, we require a minimum of 5/7. Try retaking the test, here are the mistakes you made. The right answer to 3 is No proteins / Bad Image. The right answer to 4 is A. The right answer to 6 is B & C
32MMXEGDW3F2FTLL96MK0LIFUZQ1DW	3	A2S00V7RUU121E	[[2], [2], [1, 2, 3], [1, 2, 3], [1, 2], [2, 3], [4]]	Your score on the test was 3/7, we require a minimum of 5/7. Try retaking the test, here are the mistakes you made. The right answer to 2 is A. The right answer to 3 is No proteins / Bad Image. The right answer to 4 is A. The right answer to 5 is B
3HLXMBQFA8XI8NYQ5XXHOMNG681731	4	A1APM81N6VFTNW	[[2], [1], [4], [1], [4], [2], [1]]	Your score on the test was 4/7, we require a minimum of 5/7. Try retaking the test, here are the mistakes you made. The right answer to 5 is B. The right answer to 6 is B & C. The right answer to 7 is No proteins / Bad Image
33028MOUUH828403DNIKMGZ5P7KD05	4	A1QP59PUWJJMJY	[[2], [4], [4], [1], [2], [2], [3]]	Your score on the test was 4/7, we require a minimum of 5/7. Try retaking the test, here are the mistakes you made. The right answer to 2 is A. The right answer to 6 is B & C. The right answer to 7 is No proteins / Bad Image
3ODU11KMZYKSI4UQ50N0J4VOCKBK91	2	A39ZLJRG775J2A	[[3], [1], [3], [4], [3], [2], [4]]	Your score on the test was 2/7, we require a minimum of 5/7. Try retaking the test, here are the mistakes you made. The right answer to 1 is B. The right answer to 3 is No proteins / Bad Image. The right answer to 4 is A. The right answer to 5 is B. The right answer to 6 is B & C
3QZ9RAJIZ6MNUNBJLKU2YLSHHJP8M6	4	A1JVUD5XUB9H48	[[3], [4], [4], [1], [2], [1], [4]]	Your score on the test was 4/7, we require a minimum of 5/7. Try retaking the test, here are the mistakes you made. The right answer to 1 is B. The right answer to 2 is A. The right answer to 6 is B & C
3V6SE57S7MEMKRSDW3PL45K8UQ6WON	4	A1JVUD5XUB9H48	[[2], [1], [4], [3], [4], [2, 3], [2]]	Your score on the test was 4/7, we require a minimum of 5/7. Try retaking the test, here are the mistakes you made. The right answer to 4 is A. The right answer to 5 is B. The right answer to 7 is No proteins / Bad Image
